m2,number_of_rooms,price_per_month,location
120,2,1300,"El Raval"
70,1,825,"La Barceloneta"
65,2,950,"La Sagrada Família"
45,2,750,"La Barceloneta"
70,2,1100,"La Barceloneta"
100,3,1200,"Navas"
65,2,1000,"El Raval"
55,1,1200,"Hostafrancs"
85,2,950,"Sarrià"
160,5,1100,"Sarrià"
41,1,825,"La Barceloneta"
85,2,950,"Sarrià"
110,3,900,"Sarrià"
55,1,900,"El Raval"